# y+ ()         
# Time          	patch           	min             	max             	average         
100             	topWall	3.30928992e-02	2.63660885e-01	2.11630098e-01
100             	bottomWall	7.53768490e-02	1.72654180e-01	1.35367697e-01
200             	topWall	4.30308406e-02	3.45052821e-01	2.80073739e-01
200             	bottomWall	7.51527760e-02	1.70536082e-01	1.22533605e-01
300             	topWall	5.17396846e-02	4.25248241e-01	3.49005415e-01
300             	bottomWall	7.51832762e-02	1.70250034e-01	1.14201969e-01
400             	topWall	5.95369611e-02	5.01567166e-01	4.17209726e-01
400             	bottomWall	7.56467239e-02	1.70026490e-01	1.08541652e-01
500             	topWall	6.64612814e-02	5.72201242e-01	4.82092153e-01
500             	bottomWall	7.74427434e-02	1.69862240e-01	1.04526169e-01
600             	topWall	7.25570904e-02	6.37990715e-01	5.42236177e-01
600             	bottomWall	7.73746125e-02	1.69656499e-01	1.01592455e-01
700             	topWall	7.81053660e-02	6.99101749e-01	5.97509710e-01
700             	bottomWall	7.43800184e-02	1.69564979e-01	9.94202453e-02
800             	topWall	8.29465788e-02	7.55458760e-01	6.48196687e-01
800             	bottomWall	7.39772309e-02	1.69533650e-01	9.78266537e-02
900             	topWall	8.72259793e-02	8.07217749e-01	6.94545985e-01
900             	bottomWall	7.39853188e-02	1.69506236e-01	9.66627868e-02
1000            	topWall	9.09270723e-02	8.54576617e-01	7.36693764e-01
1000            	bottomWall	7.52461657e-02	1.69405752e-01	9.58170697e-02
1100            	topWall	9.43472345e-02	8.97947962e-01	7.74989636e-01
1100            	bottomWall	7.93011682e-02	1.69422331e-01	9.52157994e-02
1200            	topWall	9.72046032e-02	9.37706358e-01	8.09775132e-01
1200            	bottomWall	7.77521571e-02	1.69459200e-01	9.47560960e-02
1300            	topWall	9.99573496e-02	9.74236374e-01	8.41413858e-01
1300            	bottomWall	7.56220722e-02	1.69843546e-01	9.44023837e-02
1400            	topWall	1.02288117e-01	1.00774145e+00	8.70200153e-01
1400            	bottomWall	7.42589401e-02	1.69982992e-01	9.41425158e-02
1500            	topWall	1.04425256e-01	1.03849434e+00	8.96376379e-01
1500            	bottomWall	7.43943952e-02	1.69519477e-01	9.39505164e-02
1600            	topWall	1.06182982e-01	1.06670524e+00	9.20168884e-01
1600            	bottomWall	7.35814641e-02	1.69433900e-01	9.38305634e-02
1700            	topWall	1.07795670e-01	1.09257386e+00	9.41776697e-01
1700            	bottomWall	7.28793904e-02	1.69563716e-01	9.37028275e-02
1800            	topWall	1.09211333e-01	1.11628634e+00	9.61379670e-01
1800            	bottomWall	7.22699576e-02	1.69971604e-01	9.36111979e-02
1900            	topWall	1.10482708e-01	1.13801631e+00	9.79162924e-01
1900            	bottomWall	7.17401592e-02	1.69585875e-01	9.35462579e-02
2000            	topWall	1.11605550e-01	1.15791655e+00	9.95284028e-01
2000            	bottomWall	7.12804437e-02	1.69386385e-01	9.35252648e-02
2100            	topWall	1.12616291e-01	1.17615052e+00	1.00989406e+00
2100            	bottomWall	7.08829155e-02	1.69442035e-01	9.34768689e-02
2200            	topWall	1.13476276e-01	1.19286678e+00	1.02313980e+00
2200            	bottomWall	7.05403701e-02	1.69952118e-01	9.34428227e-02
2300            	topWall	1.14235747e-01	1.20817452e+00	1.03513525e+00
2300            	bottomWall	7.02460531e-02	1.69650165e-01	9.34234617e-02
2400            	topWall	1.14902718e-01	1.22219282e+00	1.04599370e+00
2400            	bottomWall	6.99937249e-02	1.69344592e-01	9.34358914e-02
2500            	topWall	1.15488313e-01	1.23501262e+00	1.05582138e+00
2500            	bottomWall	6.97778878e-02	1.69366908e-01	9.34215298e-02
2600            	topWall	1.15965324e-01	1.24673401e+00	1.06470729e+00
2600            	bottomWall	6.95938431e-02	1.69916132e-01	9.34077200e-02
2700            	topWall	1.16421890e-01	1.25745357e+00	1.07274088e+00
2700            	bottomWall	6.94375362e-02	1.69708550e-01	9.34050168e-02
2800            	topWall	1.16854478e-01	1.26724893e+00	1.07999818e+00
2800            	bottomWall	6.93053998e-02	1.69311557e-01	9.34258244e-02
2900            	topWall	1.17177895e-01	1.27617441e+00	1.08654683e+00
2900            	bottomWall	6.91942878e-02	1.69331764e-01	9.34295934e-02
3000            	topWall	1.17506971e-01	1.28432522e+00	1.09245782e+00
3000            	bottomWall	6.91014179e-02	1.69865519e-01	9.34212095e-02
3100            	topWall	1.17753766e-01	1.29174048e+00	1.09778155e+00
3100            	bottomWall	6.90243315e-02	1.69771605e-01	9.34236131e-02
3200            	topWall	1.18006594e-01	1.29849306e+00	1.10258034e+00
3200            	bottomWall	6.89608940e-02	1.69303828e-01	9.34428891e-02
3300            	topWall	1.18208672e-01	1.30462554e+00	1.10689710e+00
3300            	bottomWall	6.89092706e-02	1.69329180e-01	9.34583843e-02
3400            	topWall	1.18386020e-01	1.31019112e+00	1.11077794e+00
3400            	bottomWall	6.88678825e-02	1.69792830e-01	9.34499066e-02
3500            	topWall	1.18540543e-01	1.31524263e+00	1.11426443e+00
3500            	bottomWall	6.88353628e-02	1.69829156e-01	9.34527470e-02
3600            	topWall	1.18675941e-01	1.31981111e+00	1.11739422e+00
3600            	bottomWall	6.88105143e-02	1.69329822e-01	9.34668365e-02
3700            	topWall	1.18791267e-01	1.32394029e+00	1.12020255e+00
3700            	bottomWall	6.87922863e-02	1.69347585e-01	9.34908166e-02
3800            	topWall	1.18890867e-01	1.32767485e+00	1.12271885e+00
3800            	bottomWall	6.87797426e-02	1.69701074e-01	9.34800840e-02
3900            	topWall	1.18974594e-01	1.33103606e+00	1.12496810e+00
3900            	bottomWall	6.87720369e-02	1.69874304e-01	9.34812998e-02
4000            	topWall	1.19051369e-01	1.33406643e+00	1.12698278e+00
4000            	bottomWall	6.87684048e-02	1.69386852e-01	9.34900926e-02
4100            	topWall	1.19121909e-01	1.33678709e+00	1.12878414e+00
4100            	bottomWall	6.87681615e-02	1.69363122e-01	9.35188523e-02
4200            	topWall	1.19182006e-01	1.33923256e+00	1.13039010e+00
4200            	bottomWall	6.87707008e-02	1.69605220e-01	9.35064282e-02
4300            	topWall	1.19231647e-01	1.34142154e+00	1.13182324e+00
4300            	bottomWall	6.87754902e-02	1.69908154e-01	9.35051587e-02
4400            	topWall	1.19270582e-01	1.34337933e+00	1.13309976e+00
4400            	bottomWall	6.87820628e-02	1.69466261e-01	9.35097023e-02
4500            	topWall	1.19310274e-01	1.34512789e+00	1.13423737e+00
4500            	bottomWall	6.87900132e-02	1.69365905e-01	9.35402868e-02
4600            	topWall	1.19341738e-01	1.34668207e+00	1.13524832e+00
4600            	bottomWall	6.87989903e-02	1.69501648e-01	9.35274533e-02
4700            	topWall	1.19367718e-01	1.34807423e+00	1.13614653e+00
4700            	bottomWall	6.88086910e-02	1.69925177e-01	9.35234503e-02
4800            	topWall	1.19394844e-01	1.34930859e+00	1.13694308e+00
4800            	bottomWall	6.88188556e-02	1.69545861e-01	9.35252451e-02
4900            	topWall	1.19415151e-01	1.35039966e+00	1.13764965e+00
4900            	bottomWall	6.88292659e-02	1.69352119e-01	9.35546060e-02
5000            	topWall	1.19433317e-01	1.35136434e+00	1.13827591e+00
5000            	bottomWall	6.88397421e-02	1.69412684e-01	9.35435435e-02
