\relax 
\providecommand*\new@tpo@label[2]{}
\csname slnc@initwrite\endcsname 
\@writefile{slnc}{\slnc@note{paragraphs}{1}{49122001}{\setbox \@tempboxa \hbox {{\makebox  [1em][l]{1}}}\hangindent \wd \@tempboxa \noindent \box \@tempboxa \RaggedRight See here.\blindtext }}
\@writefile{slnc}{\slnc@note{paragraphs}{1}{36643941}{\setbox \@tempboxa \hbox {{\makebox  [1em][l]{2}}}\hangindent \wd \@tempboxa \noindent \box \@tempboxa \RaggedRight \blindtext }}
\@writefile{slnc}{\slnc@note{paragraphs}{1}{23274591}{\setbox \@tempboxa \hbox {{\makebox  [1em][l]{3}}}\hangindent \wd \@tempboxa \noindent \box \@tempboxa \RaggedRight Proof of concept: \blindtext {}}}
\@writefile{slnc}{\slnc@sync{paragraphs}{1}{1}{}}
\newlabel{notecolumn.1.synctext.label}{{23135056}{1}}
\@writefile{slnc}{\slnc@note{paragraphs}{2}{34248605}{\setbox \@tempboxa \hbox {{\makebox  [1em][l]{5}}}\hangindent \wd \@tempboxa \noindent \box \@tempboxa \RaggedRight Tabular in the margin: \par \begin {tabular}{|l|l|}\hline a& b\\\hline a& b\\\hline a& b\\\hline \end {tabular}}}
\@writefile{slnc}{\slnc@note{paragraphs}{2}{33217780}{\begin {nonfloattable}\centering \begin {tabular}{|l|l|}\hline a& b\\\hline a& b\\\hline a& b\\\hline \end {tabular} \caption {This is a second table}\label {tab:secondtable}\end {nonfloattable}}}
\newlabel{notecolumn.1}{{2}{\numexpr +\z@ +\z@ \relax }}
\@writefile{slnc}{\slnc@note{paragraphs}{2}{12613125}{\setbox \@tempboxa \hbox {{\makebox  [1em][l]{4}}}\hangindent \wd \@tempboxa \noindent \box \@tempboxa \RaggedRight From inside the float}}
\@writefile{lot}{\contentsline {table}{\numberline {1}{\ignorespaces This is a table}}{2}\protected@file@percent }
\newlabel{tab:table}{{1}{2}}
\newlabel{notecolumn.paragraphs.1.syncnote.label}{{36031185}{2}}
\@writefile{lot}{\contentsline {table}{\numberline {2}{\ignorespaces This is a second table}}{2}\protected@file@percent }
\newlabel{tab:secondtable}{{2}{2}}
\global\@namedef{scr@dte@table@lastmaxnumwidth}{9.85492pt}
\global\@namedef{scr@dte@table@lastmaxnumwidth}{9.85492pt}
