# y+ ()         
# Time          	patch           	min             	max             	average         
100             	topWall	3.11003748e-02	2.47475551e-01	1.99933535e-01
100             	bottomWall	1.10386321e-02	6.93959435e-01	4.89428152e-01
200             	topWall	3.68166988e-02	3.05920201e-01	2.48242627e-01
200             	bottomWall	1.49754673e-02	6.89519819e-01	4.79483879e-01
300             	topWall	4.11948736e-02	3.55370563e-01	2.92341254e-01
300             	bottomWall	1.84951269e-02	6.89650959e-01	4.68662274e-01
400             	topWall	4.45158138e-02	3.97800563e-01	3.30592647e-01
400             	bottomWall	1.84912596e-02	6.89426510e-01	4.61554515e-01
500             	topWall	4.70554327e-02	4.33175981e-01	3.62866254e-01
500             	bottomWall	1.84892172e-02	6.89315093e-01	4.57183753e-01
600             	topWall	4.90003420e-02	4.63438737e-01	3.89952942e-01
600             	bottomWall	1.84875341e-02	6.89217548e-01	4.54380723e-01
700             	topWall	5.05068230e-02	4.89078308e-01	4.12584882e-01
700             	bottomWall	1.84867395e-02	6.89242839e-01	4.52478928e-01
800             	topWall	5.16101392e-02	5.10727072e-01	4.31566909e-01
800             	bottomWall	1.84859586e-02	6.88972545e-01	4.51164060e-01
900             	topWall	5.24877823e-02	5.29028404e-01	4.47425285e-01
900             	bottomWall	1.84853305e-02	6.89000118e-01	4.50269734e-01
1000            	topWall	5.31394069e-02	5.44513097e-01	4.60693797e-01
1000            	bottomWall	1.84850481e-02	6.89149540e-01	4.49677112e-01
1100            	topWall	5.36469840e-02	5.57617004e-01	4.71809052e-01
1100            	bottomWall	1.84847563e-02	6.88980066e-01	4.49295307e-01
1200            	topWall	5.40320305e-02	5.68692935e-01	4.81117057e-01
1200            	bottomWall	1.84844023e-02	6.89013528e-01	4.49072752e-01
1300            	topWall	5.43209897e-02	5.78043492e-01	4.88898216e-01
1300            	bottomWall	1.84841640e-02	6.89115013e-01	4.48964661e-01
1400            	topWall	5.45512870e-02	5.85922260e-01	4.95400462e-01
1400            	bottomWall	1.84840737e-02	6.89045019e-01	4.48934876e-01
1500            	topWall	5.47251420e-02	5.92548412e-01	5.00829641e-01
1500            	bottomWall	1.84844727e-02	6.88949544e-01	4.48963212e-01
1600            	topWall	5.48600157e-02	5.98101657e-01	5.05358988e-01
1600            	bottomWall	1.84839389e-02	6.89048467e-01	4.49031379e-01
1700            	topWall	5.49672876e-02	6.02737766e-01	5.09131323e-01
1700            	bottomWall	1.84838606e-02	6.88980809e-01	4.49122498e-01
1800            	topWall	5.50417070e-02	6.06602424e-01	5.12270180e-01
1800            	bottomWall	1.84839074e-02	6.88976006e-01	4.49226557e-01
1900            	topWall	5.51035631e-02	6.09803294e-01	5.14875234e-01
1900            	bottomWall	1.84838575e-02	6.89215252e-01	4.49338986e-01
2000            	topWall	5.51488372e-02	6.12436733e-01	5.17029052e-01
2000            	bottomWall	1.84837862e-02	6.88999742e-01	4.49447548e-01
2100            	topWall	5.51865964e-02	6.14593532e-01	5.18805587e-01
2100            	bottomWall	1.84840254e-02	6.89051125e-01	4.49554910e-01
2200            	topWall	5.52126985e-02	6.16345561e-01	5.20261779e-01
2200            	bottomWall	1.84838241e-02	6.88895588e-01	4.49653272e-01
2300            	topWall	5.52363489e-02	6.17756193e-01	5.21450026e-01
2300            	bottomWall	1.84832261e-02	6.88888422e-01	4.49745486e-01
2400            	topWall	5.52492477e-02	6.18884621e-01	5.22413911e-01
2400            	bottomWall	1.84837206e-02	6.89027646e-01	4.49833704e-01
2500            	topWall	5.52634974e-02	6.19782454e-01	5.23191152e-01
2500            	bottomWall	1.84836609e-02	6.88943572e-01	4.49908905e-01
2600            	topWall	5.52723043e-02	6.20483529e-01	5.23811315e-01
2600            	bottomWall	1.84836792e-02	6.88939504e-01	4.49975049e-01
2700            	topWall	5.52805531e-02	6.21032598e-01	5.24303832e-01
2700            	bottomWall	1.84836679e-02	6.89143580e-01	4.50034825e-01
2800            	topWall	5.52857907e-02	6.21450648e-01	5.24687943e-01
2800            	bottomWall	1.84839507e-02	6.89195792e-01	4.50084197e-01
2900            	topWall	5.52899557e-02	6.21771888e-01	5.24986340e-01
2900            	bottomWall	1.84836453e-02	6.89048260e-01	4.50126037e-01
3000            	topWall	5.52926319e-02	6.22011146e-01	5.25213176e-01
3000            	bottomWall	1.84838702e-02	6.89324487e-01	4.50159422e-01
3100            	topWall	5.52945920e-02	6.22192862e-01	5.25386302e-01
3100            	bottomWall	1.84836882e-02	6.89119440e-01	4.50188175e-01
3200            	topWall	5.52962859e-02	6.22326396e-01	5.25515509e-01
3200            	bottomWall	1.84836882e-02	6.89166045e-01	4.50213283e-01
3300            	topWall	5.52977030e-02	6.22420136e-01	5.25607230e-01
3300            	bottomWall	1.84836629e-02	6.89215511e-01	4.50232352e-01
3400            	topWall	5.52985165e-02	6.22483174e-01	5.25668552e-01
3400            	bottomWall	1.84836513e-02	6.89369098e-01	4.50248092e-01
3500            	topWall	5.52990285e-02	6.22522739e-01	5.25706179e-01
3500            	bottomWall	1.84837476e-02	6.89124535e-01	4.50257081e-01
3600            	topWall	5.52993873e-02	6.22546471e-01	5.25727510e-01
3600            	bottomWall	1.84836925e-02	6.89088957e-01	4.50265408e-01
3700            	topWall	5.52996650e-02	6.22559072e-01	5.25737789e-01
3700            	bottomWall	1.84836730e-02	6.89091913e-01	4.50270405e-01
3800            	topWall	5.52998022e-02	6.22565000e-01	5.25741235e-01
3800            	bottomWall	1.84836886e-02	6.89203980e-01	4.50275792e-01
3900            	topWall	5.52999386e-02	6.22567048e-01	5.25740614e-01
3900            	bottomWall	1.84837202e-02	6.89184514e-01	4.50275795e-01
4000            	topWall	5.52999389e-02	6.22566906e-01	5.25738343e-01
4000            	bottomWall	1.84836862e-02	6.89130247e-01	4.50276692e-01
4100            	topWall	5.52999180e-02	6.22566013e-01	5.25735668e-01
4100            	bottomWall	1.84836786e-02	6.89169690e-01	4.50275979e-01
4200            	topWall	5.52998315e-02	6.22564768e-01	5.25733005e-01
4200            	bottomWall	1.84837160e-02	6.89187210e-01	4.50276293e-01
4300            	topWall	5.52999830e-02	6.22563919e-01	5.25730934e-01
4300            	bottomWall	1.84836891e-02	6.89164782e-01	4.50276494e-01
4400            	topWall	5.52999939e-02	6.22563523e-01	5.25729469e-01
4400            	bottomWall	1.84836293e-02	6.89253465e-01	4.50276035e-01
4500            	topWall	5.52999486e-02	6.22563537e-01	5.25728901e-01
4500            	bottomWall	1.84836568e-02	6.89158245e-01	4.50276370e-01
4600            	topWall	5.52999756e-02	6.22563473e-01	5.25728800e-01
4600            	bottomWall	1.84836719e-02	6.89165633e-01	4.50274902e-01
4700            	topWall	5.53000542e-02	6.22563656e-01	5.25728878e-01
4700            	bottomWall	1.84836853e-02	6.89124974e-01	4.50273325e-01
4800            	topWall	5.53000310e-02	6.22563832e-01	5.25729358e-01
4800            	bottomWall	1.84836727e-02	6.89142465e-01	4.50274453e-01
4900            	topWall	5.53000273e-02	6.22564519e-01	5.25729948e-01
4900            	bottomWall	1.84836591e-02	6.89094931e-01	4.50274190e-01
5000            	topWall	5.53000433e-02	6.22565021e-01	5.25730699e-01
5000            	bottomWall	1.84836927e-02	6.89127203e-01	4.50273757e-01
