# y+ ()         
# Time          	patch           	min             	max             	average         
100             	topWall	1.76534976e-02	1.39614677e-01	1.12566024e-01
100             	bottomWall	1.85162108e-01	5.77086579e-01	1.89583890e-01
200             	topWall	2.20273543e-02	1.81356258e-01	1.48693032e-01
200             	bottomWall	1.43806618e-01	5.75612537e-01	1.52074012e-01
300             	topWall	2.52681026e-02	2.15507097e-01	1.80045137e-01
300             	bottomWall	1.33396317e-01	5.75041620e-01	1.45688657e-01
400             	topWall	2.78185316e-02	2.45165970e-01	2.07224290e-01
400             	bottomWall	1.38524799e-01	5.74748585e-01	1.52912437e-01
500             	topWall	2.99179658e-02	2.71218186e-01	2.30884321e-01
500             	bottomWall	1.41375344e-01	5.74577209e-01	1.57130647e-01
600             	topWall	3.16030420e-02	2.94241380e-01	2.51387624e-01
600             	bottomWall	1.42599889e-01	5.74468121e-01	1.59514907e-01
700             	topWall	3.29422694e-02	3.14409105e-01	2.69110058e-01
700             	bottomWall	1.42911918e-01	5.74396059e-01	1.60907087e-01
800             	topWall	3.39848017e-02	3.31849305e-01	2.84189164e-01
800             	bottomWall	1.42770965e-01	5.74348258e-01	1.61794520e-01
900             	topWall	3.47897780e-02	3.46765298e-01	2.96847933e-01
900             	bottomWall	1.42454038e-01	5.74316520e-01	1.62421954e-01
1000            	topWall	3.53936572e-02	3.59418025e-01	3.07355580e-01
1000            	bottomWall	1.42092281e-01	5.74295635e-01	1.62899117e-01
1100            	topWall	3.58413373e-02	3.70085586e-01	3.16010001e-01
1100            	bottomWall	1.41741977e-01	5.74282081e-01	1.63277208e-01
1200            	topWall	3.61670926e-02	3.79031291e-01	3.23093739e-01
1200            	bottomWall	1.41427149e-01	5.74273424e-01	1.63583872e-01
1300            	topWall	3.64002114e-02	3.86496245e-01	3.28852827e-01
1300            	bottomWall	1.41158847e-01	5.74268010e-01	1.63836853e-01
1400            	topWall	3.65583709e-02	3.92698617e-01	3.33505306e-01
1400            	bottomWall	1.40942724e-01	5.74264725e-01	1.64048218e-01
1500            	topWall	3.66654016e-02	3.97831748e-01	3.37241789e-01
1500            	bottomWall	1.40778770e-01	5.74262830e-01	1.64228409e-01
1600            	topWall	3.67327324e-02	4.02060564e-01	3.40224060e-01
1600            	bottomWall	1.40665115e-01	5.74261834e-01	1.64382955e-01
1700            	topWall	3.67694790e-02	4.05523940e-01	3.42585515e-01
1700            	bottomWall	1.40594727e-01	5.74261418e-01	1.64515202e-01
1800            	topWall	3.67842973e-02	4.08339214e-01	3.44437113e-01
1800            	bottomWall	1.40560241e-01	5.74261379e-01	1.64628775e-01
1900            	topWall	3.67834890e-02	4.10598888e-01	3.45870166e-01
1900            	bottomWall	1.40558249e-01	5.74261574e-01	1.64727529e-01
2000            	topWall	3.67706188e-02	4.12380643e-01	3.46959216e-01
2000            	bottomWall	1.40585246e-01	5.74261909e-01	1.64814732e-01
2100            	topWall	3.67504036e-02	4.13745419e-01	3.47765152e-01
2100            	bottomWall	1.40636754e-01	5.74262323e-01	1.64893016e-01
2200            	topWall	3.67255660e-02	4.14743536e-01	3.48338751e-01
2200            	bottomWall	1.40707907e-01	5.74262779e-01	1.64965073e-01
2300            	topWall	3.66984117e-02	4.15421636e-01	3.48722545e-01
2300            	bottomWall	1.40793803e-01	5.74263247e-01	1.65030266e-01
2400            	topWall	3.66707251e-02	4.15825780e-01	3.48952461e-01
2400            	bottomWall	1.40889758e-01	5.74263696e-01	1.65088056e-01
2500            	topWall	3.66437708e-02	4.16001767e-01	3.49059547e-01
2500            	bottomWall	1.40991773e-01	5.74264110e-01	1.65138708e-01
2600            	topWall	3.66183798e-02	4.15992026e-01	3.49071476e-01
2600            	bottomWall	1.41096532e-01	5.74264481e-01	1.65182885e-01
2700            	topWall	3.65950804e-02	4.15838758e-01	3.49012811e-01
2700            	bottomWall	1.41201698e-01	5.74264809e-01	1.65221383e-01
2800            	topWall	3.65740533e-02	4.15578261e-01	3.48904270e-01
2800            	bottomWall	1.41305460e-01	5.74265095e-01	1.65254942e-01
2900            	topWall	3.65553877e-02	4.15241944e-01	3.48762217e-01
2900            	bottomWall	1.41406883e-01	5.74265342e-01	1.65284202e-01
3000            	topWall	3.65389891e-02	4.14857921e-01	3.48599193e-01
3000            	bottomWall	1.41505362e-01	5.74265554e-01	1.65309690e-01
3100            	topWall	3.65248005e-02	4.14446691e-01	3.48424768e-01
3100            	bottomWall	1.41600330e-01	5.74265735e-01	1.65331850e-01
3200            	topWall	3.65126540e-02	4.14027069e-01	3.48246034e-01
3200            	bottomWall	1.41691254e-01	5.74265889e-01	1.65351057e-01
3300            	topWall	3.65022969e-02	4.13613550e-01	3.48068257e-01
3300            	bottomWall	1.41777628e-01	5.74266018e-01	1.65367636e-01
3400            	topWall	3.64933495e-02	4.13216321e-01	3.47895290e-01
3400            	bottomWall	1.41859035e-01	5.74266127e-01	1.65381879e-01
3500            	topWall	3.64859265e-02	4.12842365e-01	3.47729778e-01
3500            	bottomWall	1.41935158e-01	5.74266218e-01	1.65394046e-01
3600            	topWall	3.64796762e-02	4.12498270e-01	3.47573541e-01
3600            	bottomWall	1.42005752e-01	5.74266294e-01	1.65404372e-01
3700            	topWall	3.64744438e-02	4.12185476e-01	3.47427730e-01
3700            	bottomWall	1.42070678e-01	5.74266357e-01	1.65413073e-01
3800            	topWall	3.64700761e-02	4.11905252e-01	3.47292960e-01
3800            	bottomWall	1.42129904e-01	5.74266410e-01	1.65420348e-01
3900            	topWall	3.64664523e-02	4.11657733e-01	3.47169470e-01
3900            	bottomWall	1.42183489e-01	5.74266453e-01	1.65426378e-01
4000            	topWall	3.64634570e-02	4.11440100e-01	3.47057195e-01
4000            	bottomWall	1.42231577e-01	5.74266489e-01	1.65431327e-01
4100            	topWall	3.64609893e-02	4.11252761e-01	3.46955871e-01
4100            	bottomWall	1.42274373e-01	5.74266518e-01	1.65435343e-01
4200            	topWall	3.64589657e-02	4.11090867e-01	3.46865068e-01
4200            	bottomWall	1.42312138e-01	5.74266542e-01	1.65438562e-01
4300            	topWall	3.64573138e-02	4.10952770e-01	3.46784252e-01
4300            	bottomWall	1.42345172e-01	5.74266562e-01	1.65441101e-01
4400            	topWall	3.64560234e-02	4.10836848e-01	3.46712840e-01
4400            	bottomWall	1.42373799e-01	5.74266578e-01	1.65443070e-01
4500            	topWall	3.64549291e-02	4.10738989e-01	3.46650115e-01
4500            	bottomWall	1.42398359e-01	5.74266591e-01	1.65444561e-01
4600            	topWall	3.64540424e-02	4.10657055e-01	3.46595424e-01
4600            	bottomWall	1.42419199e-01	5.74266602e-01	1.65445658e-01
4700            	topWall	3.64533267e-02	4.10588962e-01	3.46548079e-01
4700            	bottomWall	1.42436667e-01	5.74266611e-01	1.65446435e-01
4800            	topWall	3.64527504e-02	4.10533871e-01	3.46507396e-01
4800            	bottomWall	1.42451107e-01	5.74266618e-01	1.65446954e-01
4900            	topWall	3.64522717e-02	4.10488852e-01	3.46472711e-01
4900            	bottomWall	1.42462855e-01	5.74266624e-01	1.65447270e-01
5000            	topWall	3.64519192e-02	4.10452321e-01	3.46443372e-01
5000            	bottomWall	1.42472231e-01	5.74266628e-01	1.65447428e-01
